module gitlab.com/hackaton4.0Ranking/rest-api

go 1.22.0

require (
	github.com/badoux/checkmail v0.0.0-20181210160741-9661bd69e9ad
	github.com/dgrijalva/jwt-go v3.2.0+incompatible
	github.com/gorilla/mux v1.8.1
	github.com/joho/godotenv v1.5.1
	golang.org/x/crypto v0.22.0
	gopkg.in/go-playground/assert.v1 v1.2.1
	gorm.io/driver/mysql v1.5.6
	gorm.io/driver/postgres v1.5.7
	gorm.io/driver/sqlite v1.5.5
	gorm.io/gorm v1.25.9
)

require (
	github.com/go-sql-driver/mysql v1.7.0 // indirect
	github.com/jackc/pgpassfile v1.0.0 // indirect
	github.com/jackc/pgservicefile v0.0.0-20221227161230-091c0ba34f0a // indirect
	github.com/jackc/pgx/v5 v5.4.3 // indirect
	github.com/jinzhu/inflection v1.0.0 // indirect
	github.com/jinzhu/now v1.1.5 // indirect
	github.com/mattn/go-sqlite3 v1.14.17 // indirect
	golang.org/x/text v0.14.0 // indirect
)
